{
  "iisSettings": {
    "windowsAuthentication": false,
    "anonymousAuthentication": true,
    "iis": {
      "applicationUrl": "http://localhost/KC-Server-Dev",
      "sslPort": 0
    },
    "iisExpress": {
      "applicationUrl": "http://localhost:50301/",
      "sslPort": 0
    }
  },
  "profiles": {
    "IIS Express": {
      "commandName": "IISExpress",
      "launchBrowser": true,
      "launchUrl": "api/values",
      "environmentVariables": {
        "ASPNETCORE_ENVIRONMENT": "Development"
      }
    },
    "KuwaitCement.DispatchingSystem.WebService": {
      "commandName": "Project",
      "launchBrowser": true,
      "launchUrl": "api/values",
      "environmentVariables": {
        "ASPNETCORE_ENVIRONMENT": "Development"
      },
      "applicationUrl": "http://localhost:50302/"
    },
    "IIS": {
      "commandName": "IIS",
      "workingDirectory": "E:\\Amanah\\Dev\\KuwaitCement\\KuwaitCement.DispatchingSystem.WebService",
      "launchBrowser": true,
      "launchUrl": "http://localhost/KC-Server-Dev"
    }
  }
}